<svg width="160" height="119" viewBox="0 0 160 119" fill="none" xmlns="http://www.w3.org/2000/svg">
<path opacity="0.1" d="M15.9957 11.8411C14.9999 12.2548 13.9887 12.7757 13.4525 13.695C12.8703 14.6755 12.9469 15.8858 13.0541 17.0043C13.9887 26.7942 16.4554 37.2124 12.1962 46.0831C10.1279 50.3883 6.6807 53.8354 3.93828 57.7422C1.18053 61.6643 -0.887774 66.5517 0.383852 71.1479C1.94657 76.7707 7.75315 79.8808 11.66 84.2012C14.2185 87.0356 16.0264 90.4674 18.4164 93.4397C20.8065 96.4119 24.0851 99.0318 27.9 99.2156C33.3848 99.4761 37.8585 94.7266 43.2361 93.6235C48.7516 92.5051 54.2977 95.3548 58.7714 98.7866C63.2451 102.218 67.3051 106.37 72.5294 108.5C78.2901 110.859 84.7708 110.507 90.8225 111.917C96.338 113.219 101.409 115.961 106.894 117.432C112.379 118.903 118.783 118.811 123.027 115.057C128.558 110.155 128.113 101.422 131.652 94.9411C134.931 88.92 141.35 85.3197 145.671 79.988C153.454 70.3972 153.193 55.7505 146.59 45.3171C139.987 34.8836 128.021 28.5714 115.795 26.9321C110.28 26.1967 104.596 26.2887 99.2949 24.6034C85.1231 20.1144 76.6814 3.98158 62.1879 0.626327C52.9801 -1.51858 44.0175 2.17373 36.1732 6.724C29.3708 10.6614 23.0893 8.89955 15.9957 11.8411Z" fill="#800080"/>
<path d="M29.8304 43.4785C29.8304 43.4785 24.606 48.4118 18.9833 48.565C16.6239 48.611 14.3564 49.423 12.4873 50.8785C11.614 51.5679 10.802 52.3493 10.0666 53.1919" stroke="#535461" stroke-width="2"/>
<path d="M6.52748 53.2991C7.2782 52.9161 10.1585 53.1766 10.1585 53.1766C10.1585 53.1766 8.67239 55.6432 7.90635 56.0262C7.17096 56.4552 6.23639 56.2101 5.80741 55.49C5.37842 54.7546 5.62356 53.8201 6.34363 53.3911C6.40492 53.3604 6.4662 53.3298 6.52748 53.2991Z" fill="#800080"/>
<path d="M9.56101 48.9328C10.4037 49.0247 12.6865 50.8019 12.6865 50.8019C12.6865 50.8019 10.0819 52.0735 9.2546 51.9816C8.41195 51.8591 7.84508 51.0777 7.96765 50.2351C8.07489 49.4537 8.76433 48.8868 9.56101 48.9328Z" fill="#800080"/>
<path d="M16.7465 45.4088C17.4206 45.9144 18.493 48.5955 18.493 48.5955C18.493 48.5955 15.6127 48.381 14.9386 47.8754C14.2798 47.3392 14.1726 46.374 14.7088 45.7152C15.1991 45.1024 16.0877 44.9645 16.7465 45.4088Z" fill="#800080"/>
<path d="M22.7675 43.9689C23.5182 44.352 25.035 46.8186 25.035 46.8186C25.035 46.8186 22.1547 47.0944 21.404 46.7114C20.6226 46.3743 20.2702 45.4704 20.6073 44.689C20.9444 43.9077 21.8483 43.5553 22.6296 43.8923C22.6756 43.9077 22.7216 43.9383 22.7675 43.9689Z" fill="#800080"/>
<path d="M14.2798 53.5901C14.525 52.7781 13.7896 49.9897 13.7896 49.9897C13.7896 49.9897 11.5987 51.8742 11.3535 52.6862C11.0625 53.4829 11.4761 54.3562 12.2728 54.6473C13.0695 54.9384 13.9428 54.5247 14.2339 53.728C14.2492 53.6821 14.2645 53.6361 14.2798 53.5901Z" fill="#800080"/>
<path d="M21.3121 51.7976C21.3121 50.955 19.7647 48.5037 19.7647 48.5037C19.7647 48.5037 18.2479 50.955 18.2479 51.7976C18.2479 52.6403 18.9373 53.3297 19.78 53.3297C20.6379 53.345 21.3121 52.6556 21.3121 51.7976Z" fill="#800080"/>
<path d="M27.9153 49.1471C28.0532 48.3198 26.9501 45.6387 26.9501 45.6387C26.9501 45.6387 25.035 47.7989 24.8971 48.6415C24.7899 49.4842 25.3874 50.2502 26.23 50.3422C27.0267 50.4341 27.7468 49.9132 27.9153 49.1471Z" fill="#800080"/>
<path d="M36.6175 30.4099C36.6175 30.4099 30.3207 26.9474 28.4515 21.6464C27.6855 19.4249 26.2147 17.4944 24.2536 16.1769C23.3191 15.564 22.3385 15.0278 21.312 14.5835" stroke="#535461" stroke-width="2"/>
<path d="M20.117 11.259C20.7145 11.8565 21.358 14.6755 21.358 14.6755C21.358 14.6755 18.539 14.0167 17.9568 13.4192C17.3899 12.7911 17.4359 11.8259 18.0641 11.259C18.6462 10.7228 19.5348 10.7381 20.117 11.259Z" fill="#800080"/>
<path d="M25.2035 12.8062C25.3721 13.6335 24.3915 16.3453 24.3915 16.3453C24.3915 16.3453 22.3845 14.2617 22.216 13.4344C22.0015 12.6224 22.4917 11.7797 23.3191 11.5652C24.1311 11.3507 24.9737 11.841 25.1882 12.6683C25.1882 12.699 25.2035 12.7449 25.2035 12.8062Z" fill="#800080"/>
<path d="M30.765 18.5515C30.5045 19.3482 28.2677 21.202 28.2677 21.202C28.2677 21.202 27.5936 18.3983 27.854 17.5863C28.1145 16.7896 28.9878 16.3453 29.7998 16.6211C30.6118 16.8968 31.0408 17.7548 30.765 18.5515Z" fill="#800080"/>
<path d="M33.9977 23.8526C33.8751 24.6799 31.9906 26.8861 31.9906 26.8861C31.9906 26.8861 30.8416 24.2356 30.9795 23.3929C31.0714 22.5503 31.8221 21.9375 32.6647 22.0294C33.5074 22.1213 34.1202 22.872 34.0283 23.7147C34.013 23.7453 34.013 23.8066 33.9977 23.8526Z" fill="#800080"/>
<path d="M22.2313 18.7199C23.0739 18.7045 25.5099 17.1571 25.5099 17.1571C25.5099 17.1571 23.0433 15.6557 22.2007 15.671C21.358 15.6863 20.6839 16.3758 20.6839 17.2184C20.6839 18.0611 21.3887 18.7352 22.2313 18.7199Z" fill="#800080"/>
<path d="M26.0768 24.8789C26.8735 24.6185 28.7426 22.3969 28.7426 22.3969C28.7426 22.3969 25.9389 21.7075 25.1269 21.968C24.3149 22.1978 23.84 23.0404 24.0698 23.8677C24.2996 24.6797 25.1423 25.1547 25.9696 24.9249C26.0155 24.8942 26.0462 24.8789 26.0768 24.8789Z" fill="#800080"/>
<path d="M30.6424 30.3333C31.4851 30.2108 33.6759 28.3416 33.6759 28.3416C33.6759 28.3416 31.0254 27.1772 30.1981 27.2998C29.3555 27.3917 28.7426 28.1425 28.8346 28.9851C28.9265 29.8277 29.6772 30.4406 30.5198 30.3486C30.5658 30.3486 30.6118 30.3486 30.6424 30.3333Z" fill="#800080"/>
<path d="M79.96 114.353C110.59 114.353 135.421 89.5219 135.421 58.8914C135.421 28.261 110.59 3.43018 79.96 3.43018C49.3296 3.43018 24.4988 28.261 24.4988 58.8914C24.4988 89.5219 49.3296 114.353 79.96 114.353Z" fill="url(#paint0_linear)"/>
<path d="M79.96 113.433C110.083 113.433 134.502 89.0139 134.502 58.8911C134.502 28.7684 110.083 4.34912 79.96 4.34912C49.8373 4.34912 25.418 28.7684 25.418 58.8911C25.418 89.0139 49.8373 113.433 79.96 113.433Z" fill="#800080"/>
<path d="M79.96 102.249C103.906 102.249 123.318 82.8372 123.318 58.8913C123.318 34.9454 103.906 15.5334 79.96 15.5334C56.0142 15.5334 36.6022 34.9454 36.6022 58.8913C36.6022 82.8372 56.0142 102.249 79.96 102.249Z" fill="#DDE1EC"/>
<path opacity="0.3" d="M81.1857 23.1938H78.7344V61.4958H81.1857V23.1938Z" fill="#535461"/>
<g opacity="0.1">
<path opacity="0.1" d="M117.19 57.9722H82.5646V61.0363H117.19V57.9722Z" fill="black"/>
<path opacity="0.1" d="M58.1195 46.5123L56.6981 49.2268L78.4822 60.6341L79.9037 57.9196L58.1195 46.5123Z" fill="black"/>
<path opacity="0.1" d="M79.96 64.1004C82.4984 64.1004 84.5562 62.0426 84.5562 59.5042C84.5562 56.9658 82.4984 54.908 79.96 54.908C77.4216 54.908 75.3638 56.9658 75.3638 59.5042C75.3638 62.0426 77.4216 64.1004 79.96 64.1004Z" fill="black"/>
</g>
<path d="M117.19 57.3591H82.5646V60.4233H117.19V57.3591Z" fill="#535461"/>
<path d="M58.1289 45.8965L56.7075 48.6111L78.4916 60.0184L79.9131 57.3038L58.1289 45.8965Z" fill="#535461"/>
<path d="M79.96 63.4876C82.4985 63.4876 84.5563 61.4298 84.5563 58.8914C84.5563 56.353 82.4985 54.2952 79.96 54.2952C77.4216 54.2952 75.3638 56.353 75.3638 58.8914C75.3638 61.4298 77.4216 63.4876 79.96 63.4876Z" fill="#535461"/>
<g opacity="0.1">
<path opacity="0.1" d="M39.9728 64.1003C39.9728 40.154 59.3842 20.7425 83.3306 20.7425C96.9508 20.7272 109.79 27.1313 117.986 38.0244C110.602 24.6187 96.3533 15.5334 79.96 15.5334C56.0136 15.5334 36.6022 34.9449 36.6022 58.8913C36.5869 68.2982 39.651 77.4601 45.3197 84.9673C41.7959 78.5785 39.9728 71.393 39.9728 64.1003Z" fill="black"/>
</g>
<path opacity="0.05" d="M111.873 38.1775C111.873 38.1775 111.306 39.5104 111.597 39.9241L111.873 38.1775Z" fill="black"/>
<path opacity="0.05" d="M89.5508 37.7639C89.5508 37.7639 89.8486 39.0968 89.5508 39.5105V37.7639Z" fill="black"/>
<path d="M147.586 68.0684C147.586 68.0684 141.182 74.4725 144.798 83.9867C148.413 93.5009 138.593 109.312 138.593 109.312C138.593 109.312 138.7 109.297 138.899 109.266C152.06 106.937 158.602 91.8922 151.278 80.6927C148.551 76.5408 146.33 71.6687 147.586 68.0684Z" fill="#800080"/>
<path opacity="0.1" d="M147.586 68.1755C147.586 68.1755 141.182 74.5796 144.798 84.0938C148.413 93.6081 138.593 109.419 138.593 109.419C138.593 109.419 138.7 109.404 138.899 109.373C152.06 107.044 158.602 91.9994 151.278 80.7999C148.551 76.6479 146.33 71.7759 147.586 68.1755Z" fill="black"/>
<path d="M147.586 68.0684C147.586 68.0684 143.97 75.9279 147.586 82.332C151.202 88.7361 148.199 106.723 138.593 109.312" stroke="#535461"/>
<path d="M159 93.9913C159 93.9913 151.692 92.827 151.018 99.3843C150.344 105.942 136.953 106.845 136.953 106.845L137.198 107.014C148.26 114.276 158.831 111.641 157.238 101.989C156.656 98.4037 156.717 94.8033 159 93.9913Z" fill="#800080"/>
<path d="M159 93.9912C159 93.9912 153.316 95.2322 153.791 100.395C154.266 105.558 145.364 111.748 136.953 106.845" stroke="#535461"/>
<path d="M152.565 107.091C152.565 107.091 146.805 105.941 145.273 104.409C143.74 102.877 136.815 100.181 136.049 102.111C135.283 104.042 125.677 110.568 132.204 111.717C138.731 112.866 147.571 113.25 149.486 112.483C151.401 111.717 152.565 107.091 152.565 107.091Z" fill="#A8A8A8"/>
<path opacity="0.2" d="M132.219 110.982C138.746 112.131 147.586 112.514 149.501 111.748C150.972 111.166 151.983 108.347 152.381 107.044L152.565 107.09C152.565 107.09 151.416 111.702 149.486 112.468C147.555 113.234 138.731 112.851 132.204 111.702C130.319 111.365 129.783 110.584 129.982 109.603C130.151 110.231 130.81 110.737 132.219 110.982Z" fill="black"/>
<defs>
<linearGradient id="paint0_linear" x1="79.9662" y1="114.354" x2="79.9662" y2="3.43171" gradientUnits="userSpaceOnUse">
<stop stop-color="#808080" stop-opacity="0.25"/>
<stop offset="0.54" stop-color="#808080" stop-opacity="0.12"/>
<stop offset="1" stop-color="#808080" stop-opacity="0.1"/>
</linearGradient>
</defs>
</svg>
