<svg width="100" height="30" viewBox="0 0 100 30" fill="none" xmlns="http://www.w3.org/2000/svg">
<path d="M6.46386 1.80515C6.84409 3.40209 7.65778 4.83252 8.25854 6.3235C8.96196 8.07181 9.73382 9.78985 10.5399 11.6933L3.63117 10.9365C3.49429 11.3792 3.83649 11.5382 4.0114 11.7614C7.60455 16.03 11.1445 20.31 14.7414 24.5483C15.2851 25.1878 15.2623 25.5965 14.7414 26.1907C13.7832 27.2805 12.8821 28.4233 11.9658 29.5473C11.4639 30.1641 11.0114 30.1376 10.4981 29.5473C7.0228 25.4225 3.80227 21.1539 1.32319 16.3517C-1.44107 10.9781 0.220525 4.74549 5.42204 1.6954C9.27755 -0.575127 13.3118 -0.575127 17.1407 1.75595C21.1254 4.18542 22.8441 7.8826 22.4068 12.5069C22.2331 13.8855 21.7941 15.2178 21.114 16.4312C19.5074 19.4903 17.6332 22.4028 15.5133 25.1349C15.365 24.8737 15.2509 24.6959 15.1597 24.5029L11.0038 15.4813L17.1102 15.9279L13.7832 11.4436L6.93154 2.27439C6.80227 2.1041 6.71101 1.89597 6.46006 1.83921L6.3574 1.6235C6.3574 1.66135 6.30797 1.70676 6.31558 1.74082C6.32318 1.77487 6.37641 1.87326 6.46386 1.80515Z" fill="#671A7A"/>
<path d="M47.4271 14.6269C47.4271 12.1025 47.4736 9.57818 47.4271 7.06056C47.4271 5.93638 47.7796 5.65366 48.8506 5.66712C52.6157 5.7277 56.3808 5.72097 60.1593 5.66712C61.1238 5.66712 61.4897 5.8758 61.5296 6.95959C61.5296 10.009 61.6028 10.009 58.5893 10.009C56.8731 10.009 55.1568 10.0494 53.4406 10.009C52.5359 10.009 52.3164 10.3792 52.3164 11.214C52.3164 12.0487 52.4428 12.4459 53.394 12.4122C55.5028 12.3449 57.6048 12.4122 59.7069 12.3785C60.5916 12.3785 60.8178 12.6747 60.8444 13.5364C60.9376 16.7339 60.9708 16.7339 57.7445 16.7339C56.301 16.7339 54.8575 16.7877 53.4206 16.7339C52.496 16.6868 52.3164 17.0974 52.3164 17.9187C52.3164 18.7399 52.4295 19.265 53.4672 19.265C55.6824 19.1977 57.8975 19.2986 60.1193 19.2246C61.2036 19.1842 61.5429 19.5073 61.5362 20.6315C61.5362 23.5665 61.5362 23.5665 58.6758 23.5665C55.5227 23.5665 52.3563 23.4588 49.2098 23.6136C47.6466 23.6809 47.3738 23.1289 47.4337 21.7287C47.5069 19.339 47.4271 16.983 47.4271 14.6269Z" fill="#691E7C"/>
<path d="M91.634 24.5641C89.3349 24.5319 87.0665 24.0222 84.9679 23.0664C83.9567 22.6254 83.4476 22.0515 84.3213 21.0157C84.3561 20.9676 84.386 20.916 84.4107 20.8617C85.8622 18.3072 85.8691 18.2862 88.4833 19.322C89.7063 19.8312 91.0219 20.0697 92.3426 20.0219C93.2094 19.9799 94.2551 19.9659 94.3376 18.8321C94.4202 17.6983 93.3676 17.6913 92.604 17.5373C91.1316 17.3153 89.6765 16.9879 88.2494 16.5575C85.6903 15.6266 84.5276 14.2688 84.4038 11.9872C84.2525 9.2297 85.3669 7.08806 87.8435 6.11522C91.634 4.60348 95.3695 5.14239 98.9949 6.87809C99.5247 7.13705 99.6829 7.424 99.3389 7.94191C99.2779 8.03994 99.225 8.14294 99.1807 8.24986C98.6785 9.16671 98.3758 10.3495 97.6328 10.9304C96.8899 11.5113 95.9543 10.3775 95.0187 10.2305C93.6428 10.0066 92.2257 9.53064 90.7879 10.0346C90.3132 10.1955 89.8867 10.4475 89.8592 10.9514C89.8316 11.4553 90.2719 11.7703 90.7397 11.8822C92.0193 12.1832 93.3057 12.4492 94.5853 12.7501C98.4446 13.6599 100.178 15.5496 99.9856 18.6151C99.793 21.6806 97.4058 23.9692 93.8767 24.4101C93.1268 24.5151 92.377 24.5221 91.634 24.5641Z" fill="#691E7C"/>
<path d="M65.4307 12.2247C65.4307 10.4504 65.4307 8.68289 65.4307 6.91539C65.4307 6.02479 65.7206 5.75761 66.5972 5.72336C70.3733 5.55209 70.3733 5.52468 70.3733 9.38167C70.3733 11.5534 70.3733 13.7182 70.3733 15.8899C70.3733 18.3836 71.3375 19.4592 73.4346 19.4797C75.5316 19.5003 76.5498 18.4041 76.5498 15.7666C76.5498 12.9098 76.5903 10.053 76.5498 7.20312C76.5498 6.16866 76.7116 5.6891 77.8984 5.68225C81.5261 5.68225 81.5598 5.60689 81.5126 9.32686C81.4789 12.2932 81.7216 15.2596 81.3306 18.2329C81.1385 20.7585 79.4456 22.9078 77.0623 23.6518C74.5035 24.6154 71.6743 24.517 69.1865 23.3778C66.8062 22.2954 65.6599 20.2538 65.4981 17.6848C65.3835 15.8625 65.4981 14.0333 65.4981 12.2042L65.4307 12.2247Z" fill="#691E7C"/>
<path d="M35.9424 19.2661C38.5298 19.2661 40.6379 19.3067 42.7459 19.2661C43.7441 19.2661 44.2038 19.4284 44.2038 20.618C44.2038 23.619 44.2563 23.619 41.2683 23.619C37.7681 23.619 34.2678 23.5785 30.761 23.619C29.73 23.619 29.5067 23.3081 29.4476 22.2672C29.2948 20.7027 29.8268 19.1494 30.8989 18.0292C32.9479 15.8527 34.7998 13.4735 36.7305 11.1754C36.9669 10.8983 37.4266 10.6482 37.2296 10.2224C37.0326 9.79652 36.54 10.0196 36.192 10.0196C34.3335 10.0196 32.4685 9.97226 30.61 10.0196C29.7825 10.0196 29.4936 9.78976 29.4607 8.88404C29.3491 5.66667 29.3097 5.66667 32.5079 5.66667C35.9556 5.66667 39.3967 5.70046 42.8444 5.66667C43.8426 5.66667 44.1118 5.97083 44.1578 7.0185C44.3201 8.63142 43.7705 10.2341 42.6605 11.3849C40.4343 13.7844 38.3985 16.3597 35.9424 19.2661Z" fill="#691E7C"/>
<path d="M6.75308 1.73846C6.65233 1.80769 6.60583 1.73846 6.59033 1.65769C6.57483 1.57692 6.61745 1.57692 6.63295 1.53846L6.73758 1.75769L6.75308 1.73846Z" fill="#FEFDFE"/>
</svg>
